<?xml version="1.0" encoding="utf-8"?>
<!-- Generator: Adobe Illustrator 18.0.0, SVG Export Plug-In . SVG Version: 6.00 Build 0)  -->
<!DOCTYPE svg PUBLIC "-//W3C//DTD SVG 1.1//EN" "http://www.w3.org/Graphics/SVG/1.1/DTD/svg11.dtd">
<svg version="1.1" id="Layer_1" xmlns="http://www.w3.org/2000/svg" xmlns:xlink="http://www.w3.org/1999/xlink" x="0px" y="0px"
	 viewBox="0 0 30 30" enable-background="new 0 0 30 30" xml:space="preserve">
<g>
	<g>
		<path fill="#34D9C3" d="M14.5,3.3c2.9,0.2,5.6,1.6,7.4,3.8L20,8.8c-1.5-1.7-3.5-2.8-5.7-2.9s-4.4,0.5-6.1,2
			c-1.7,1.5-2.8,3.5-2.9,5.7c-0.2,2.2,0.5,4.4,2,6.1l-1.9,1.6c-1.9-2.2-2.8-5.1-2.6-8C3,10.4,4.3,7.8,6.5,5.9
			C8.8,4,11.6,3.1,14.5,3.3z"/>
	</g>
	<g>
		<path fill="#34D9C3" d="M25.5,8.1c1.9,2.2,2.8,5.1,2.6,8c-0.2,2.9-1.6,5.6-3.8,7.4c-2.2,1.9-5.1,2.8-8,2.6
			c-2.9-0.2-5.6-1.6-7.4-3.8l1.9-1.6c1.5,1.7,3.5,2.8,5.7,2.9c2.2,0.2,4.4-0.5,6.1-2c1.7-1.5,2.8-3.5,2.9-5.7c0.2-2.2-0.5-4.4-2-6.1
			L25.5,8.1z"/>
	</g>
</g>
</svg>
