<?xml version="1.0" encoding="utf-8"?>
<!-- Generator: Adobe Illustrator 18.0.0, SVG Export Plug-In . SVG Version: 6.00 Build 0)  -->
<!DOCTYPE svg PUBLIC "-//W3C//DTD SVG 1.1//EN" "http://www.w3.org/Graphics/SVG/1.1/DTD/svg11.dtd">
<svg version="1.1" id="Layer_1" xmlns="http://www.w3.org/2000/svg" xmlns:xlink="http://www.w3.org/1999/xlink" x="0px" y="0px"
	 viewBox="0 0 30 30" enable-background="new 0 0 30 30" xml:space="preserve">
<g>
	<g>
		<polygon fill="#34D9C3" points="23.4,16.6 22.4,27.9 13.1,21.3 14.4,19.6 20.6,23.9 21.2,16.4 		"/>
	</g>
	<g>
		<polygon fill="#34D9C3" points="24.6,2.6 23.6,13.5 21.5,13.3 22.1,6.1 6.1,13.2 11.8,17.2 10.6,19 1.7,12.8 		"/>
	</g>
</g>
</svg>
