<?xml version="1.0" encoding="utf-8"?>
<!-- Generator: Adobe Illustrator 18.0.0, SVG Export Plug-In . SVG Version: 6.00 Build 0)  -->
<!DOCTYPE svg PUBLIC "-//W3C//DTD SVG 1.1//EN" "http://www.w3.org/Graphics/SVG/1.1/DTD/svg11.dtd">
<svg version="1.1" id="Layer_1" xmlns="http://www.w3.org/2000/svg" xmlns:xlink="http://www.w3.org/1999/xlink" x="0px" y="0px"
	 viewBox="0 0 39.5 47.7" enable-background="new 0 0 39.5 47.7" xml:space="preserve">
<g>
	<path fill="#34D9C3" d="M31,1.3c2.4,0.9,3.6,3.6,2.7,6c-0.9,2.4-3.5,3.7-6,2.7c-2.5-0.9-3.7-3.6-2.8-6C25.8,1.5,28.5,0.3,31,1.3z
		 M25.8,14.6l1.4,0.3c-0.5,2.4-1.7,6.4-6.6,8.2c-3.6,1.3-6.4,3.2-8.2,9.6c-2.3,8.2,3.3,12.3,9,12.2c2.5-0.1,3-1.8,2.2-2.2
		c-0.8-0.5-1.4-1.2-1.7-2.2c-0.5-2,0.7-4.1,2.7-4.7c2-0.5,4.1,0.8,4.6,2.9c0.3,1.4-0.3,2.7-1,3.7c-0.9,1.2-3.3,3.2-6.6,3.4
		C10.8,46.5,2,38.7,4.9,30.2c2.8-8.7,9.9-10.1,13.7-9.9C22.1,20.4,24.7,18.3,25.8,14.6z"/>
</g>
</svg>
